…
available_maps_df
#> # A tibble: 209 × 4
#>    map_name             type  main_map region
#>    <chr>                <chr> <chr>    <chr> 
#>  1 col_bog_localidades  main  <NA>     <NA>  
#>  2 col_bog_localidades2 main  <NA>     <NA>  
#>  3 col_departments      main  <NA>     <NA>  
#>  4 col_municipalities   main  <NA>     <NA>  
#>  5 gtm_departments      main  <NA>     <NA>  
#>  6 gtm_municipalities   main  <NA>     <NA>  
#>  7 mex_cdmx_ageb        main  <NA>     <NA>  
#>  8 mex_cdmx_colonies    main  <NA>     <NA>  
#>  9 mex_cdmx_localities  main  <NA>     <NA>  
#> 10 mex_cdmx_mayors      main  <NA>     <NA>  
#> # ℹ 199 more rows
```
…
